EESchema Schematic File Version 2
LIBS:mysensors-DIN-relay-rescue
LIBS:power
LIBS:device
LIBS:transistors
LIBS:conn
LIBS:linear
LIBS:regul
LIBS:74xx
LIBS:cmos4000
LIBS:adc-dac
LIBS:memory
LIBS:xilinx
LIBS:microcontrollers
LIBS:dsp
LIBS:microchip
LIBS:analog_switches
LIBS:motorola
LIBS:texas
LIBS:intel
LIBS:audio
LIBS:interface
LIBS:digital-audio
LIBS:philips
LIBS:display
LIBS:cypress
LIBS:siliconi
LIBS:opto
LIBS:atmel
LIBS:contrib
LIBS:valves
LIBS:my-microcontrollers
LIBS:my-misc-modules
LIBS:my-power-supplies
LIBS:my-regulators
LIBS:my-relays
LIBS:mysensors-DIN-relay-cache
EELAYER 25 0
EELAYER END
$Descr A4 11693 8268
encoding utf-8
Sheet 1 1
Title ""
Date ""
Rev ""
Comp ""
Comment1 ""
Comment2 ""
Comment3 ""
Comment4 ""
$EndDescr
$Comp
L NRF24L01 U4
U 1 1 59907F10
P 6000 1800
F 0 "U4" H 5850 2050 60  0000 C CNN
F 1 "NRF24L01" H 6000 1400 60  0000 C CNN
F 2 "myModules:NRF24L01" H 6000 1800 60  0001 C CNN
F 3 "" H 6000 1800 60  0000 C CNN
	1    6000 1800
	-1   0    0    -1  
$EndComp
$Comp
L GND #PWR01
U 1 1 59907F81
P 6000 2450
F 0 "#PWR01" H 6000 2200 50  0001 C CNN
F 1 "GND" H 6000 2300 50  0000 C CNN
F 2 "" H 6000 2450 50  0000 C CNN
F 3 "" H 6000 2450 50  0000 C CNN
	1    6000 2450
	1    0    0    -1  
$EndComp
$Comp
L +3V3 #PWR02
U 1 1 59907FD5
P 6000 950
F 0 "#PWR02" H 6000 800 50  0001 C CNN
F 1 "+3V3" H 6000 1090 50  0000 C CNN
F 2 "" H 6000 950 50  0000 C CNN
F 3 "" H 6000 950 50  0000 C CNN
	1    6000 950 
	1    0    0    -1  
$EndComp
$Comp
L CONN_01X02 P2
U 1 1 59908412
P 1500 5000
F 0 "P2" H 1500 5150 50  0000 C CNN
F 1 "AC-230V" V 1600 5000 50  0000 C CNN
F 2 "Connect:bornier2" H 1500 5000 50  0001 C CNN
F 3 "" H 1500 5000 50  0000 C CNN
	1    1500 5000
	-1   0    0    -1  
$EndComp
$Comp
L GND #PWR03
U 1 1 59908427
P 2750 3200
F 0 "#PWR03" H 2750 2950 50  0001 C CNN
F 1 "GND" H 2750 3050 50  0000 C CNN
F 2 "" H 2750 3200 50  0000 C CNN
F 3 "" H 2750 3200 50  0000 C CNN
	1    2750 3200
	1    0    0    -1  
$EndComp
$Comp
L arduino_mini U1
U 1 1 5992F159
P 4100 2450
F 0 "U1" H 4125 3000 70  0000 C CNN
F 1 "arduino_mini" H 4125 2750 70  0000 C CNN
F 2 "myMicroControllers:Arduino-mini" H 4100 2350 60  0001 C CNN
F 3 "" H 4425 1950 60  0000 C CNN
	1    4100 2450
	-1   0    0    1   
$EndComp
$Comp
L MCP1702 U2
U 1 1 5992F4B0
P 4050 3900
F 0 "U2" H 3850 4100 50  0000 C CNN
F 1 "MCP1702" H 4050 4100 50  0000 L CNN
F 2 "TO_SOT_Packages_THT:TO-92_Inline_Wide" H 4050 4000 50  0001 C CIN
F 3 "" H 4050 3900 50  0000 C CNN
	1    4050 3900
	1    0    0    -1  
$EndComp
$Comp
L +5V #PWR04
U 1 1 5992F532
P 3550 3750
F 0 "#PWR04" H 3550 3600 50  0001 C CNN
F 1 "+5V" H 3550 3890 50  0000 C CNN
F 2 "" H 3550 3750 50  0000 C CNN
F 3 "" H 3550 3750 50  0000 C CNN
	1    3550 3750
	1    0    0    -1  
$EndComp
$Comp
L C C2
U 1 1 5992F89E
P 4600 4100
F 0 "C2" H 4625 4200 50  0000 L CNN
F 1 "1µF" H 4625 4000 50  0000 L CNN
F 2 "Capacitors_ThroughHole:C_Rect_L7_W2.5_P5" H 4638 3950 50  0001 C CNN
F 3 "" H 4600 4100 50  0000 C CNN
	1    4600 4100
	1    0    0    -1  
$EndComp
$Comp
L GND #PWR05
U 1 1 5992FBCA
P 4600 4450
F 0 "#PWR05" H 4600 4200 50  0001 C CNN
F 1 "GND" H 4600 4300 50  0000 C CNN
F 2 "" H 4600 4450 50  0000 C CNN
F 3 "" H 4600 4450 50  0000 C CNN
	1    4600 4450
	1    0    0    -1  
$EndComp
$Comp
L +3V3 #PWR06
U 1 1 5992FF95
P 4600 3750
F 0 "#PWR06" H 4600 3600 50  0001 C CNN
F 1 "+3V3" H 4600 3890 50  0000 C CNN
F 2 "" H 4600 3750 50  0000 C CNN
F 3 "" H 4600 3750 50  0000 C CNN
	1    4600 3750
	1    0    0    -1  
$EndComp
$Comp
L C C1
U 1 1 599178AC
P 2550 2900
F 0 "C1" H 2575 3000 50  0000 L CNN
F 1 "100nF" H 2575 2800 50  0000 L CNN
F 2 "Capacitors_ThroughHole:C_Rect_L7_W2_P5" H 2588 2750 50  0001 C CNN
F 3 "" H 2550 2900 50  0000 C CNN
	1    2550 2900
	1    0    0    -1  
$EndComp
$Comp
L R R3
U 1 1 59A71F62
P 7750 3000
F 0 "R3" V 7830 3000 50  0000 C CNN
F 1 "1K" V 7750 3000 50  0000 C CNN
F 2 "myPassives:Resistor_250mW" V 7680 3000 50  0001 C CNN
F 3 "" H 7750 3000 50  0000 C CNN
	1    7750 3000
	0    1    1    0   
$EndComp
$Comp
L R R4
U 1 1 59A71F69
P 7750 2600
F 0 "R4" V 7830 2600 50  0000 C CNN
F 1 "1K" V 7750 2600 50  0000 C CNN
F 2 "myPassives:Resistor_250mW" V 7680 2600 50  0001 C CNN
F 3 "" H 7750 2600 50  0000 C CNN
	1    7750 2600
	0    1    1    0   
$EndComp
$Comp
L D D2
U 1 1 59A71F70
P 8500 1950
F 0 "D2" H 8500 2050 50  0000 C CNN
F 1 "1N4148" H 8500 1850 50  0000 C CNN
F 2 "Diodes_ThroughHole:Diode_DO-35_SOD27_Horizontal_RM10" H 8500 1950 50  0001 C CNN
F 3 "" H 8500 1950 50  0000 C CNN
	1    8500 1950
	0    1    1    0   
$EndComp
$Comp
L D D1
U 1 1 59A71F77
P 8100 1950
F 0 "D1" H 8100 2050 50  0000 C CNN
F 1 "1N4148" H 8100 1850 50  0000 C CNN
F 2 "Diodes_ThroughHole:Diode_DO-35_SOD27_Horizontal_RM10" H 8100 1950 50  0001 C CNN
F 3 "" H 8100 1950 50  0000 C CNN
	1    8100 1950
	0    1    1    0   
$EndComp
$Comp
L PN2222A Q2
U 1 1 59A71F7E
P 8600 2600
F 0 "Q2" H 8800 2675 50  0000 L CNN
F 1 "2N3904" H 8800 2600 50  0000 L CNN
F 2 "TO_SOT_Packages_THT:TO-92_Inline_Wide" H 8800 2525 50  0001 L CIN
F 3 "" H 8600 2600 50  0000 L CNN
	1    8600 2600
	1    0    0    -1  
$EndComp
$Comp
L PN2222A Q1
U 1 1 59A71F85
P 8200 3000
F 0 "Q1" H 8400 3075 50  0000 L CNN
F 1 "2N3904" H 8400 3000 50  0000 L CNN
F 2 "TO_SOT_Packages_THT:TO-92_Inline_Wide" H 8400 2925 50  0001 L CIN
F 3 "" H 8200 3000 50  0000 L CNN
	1    8200 3000
	1    0    0    -1  
$EndComp
$Comp
L GND #PWR07
U 1 1 59A71FAC
P 8300 3400
F 0 "#PWR07" H 8300 3150 50  0001 C CNN
F 1 "GND" H 8300 3250 50  0000 C CNN
F 2 "" H 8300 3400 50  0000 C CNN
F 3 "" H 8300 3400 50  0000 C CNN
	1    8300 3400
	1    0    0    -1  
$EndComp
$Comp
L CONN_01X02 P1
U 1 1 59A73AF6
P 1500 5750
F 0 "P1" H 1500 5900 50  0000 C CNN
F 1 "AC-OUT1" V 1600 5750 50  0000 C CNN
F 2 "Connect:bornier2" H 1500 5750 50  0001 C CNN
F 3 "" H 1500 5750 50  0000 C CNN
	1    1500 5750
	-1   0    0    1   
$EndComp
$Comp
L GND #PWR08
U 1 1 59AA69DB
P 1800 4100
F 0 "#PWR08" H 1800 3850 50  0001 C CNN
F 1 "GND" H 1800 3950 50  0000 C CNN
F 2 "" H 1800 4100 50  0000 C CNN
F 3 "" H 1800 4100 50  0000 C CNN
	1    1800 4100
	1    0    0    -1  
$EndComp
$Comp
L GND #PWR09
U 1 1 59ABB78A
P 3750 5100
F 0 "#PWR09" H 3750 4850 50  0001 C CNN
F 1 "GND" H 3750 4950 50  0000 C CNN
F 2 "" H 3750 5100 50  0000 C CNN
F 3 "" H 3750 5100 50  0000 C CNN
	1    3750 5100
	1    0    0    -1  
$EndComp
$Comp
L +5V #PWR010
U 1 1 59ABB79B
P 3700 4850
F 0 "#PWR010" H 3700 4700 50  0001 C CNN
F 1 "+5V" H 3700 4990 50  0000 C CNN
F 2 "" H 3700 4850 50  0000 C CNN
F 3 "" H 3700 4850 50  0000 C CNN
	1    3700 4850
	1    0    0    -1  
$EndComp
$Comp
L +5V #PWR011
U 1 1 59ABBA22
P 8100 1600
F 0 "#PWR011" H 8100 1450 50  0001 C CNN
F 1 "+5V" H 8100 1740 50  0000 C CNN
F 2 "" H 8100 1600 50  0000 C CNN
F 3 "" H 8100 1600 50  0000 C CNN
	1    8100 1600
	1    0    0    -1  
$EndComp
$Comp
L IRM-XX-XX U3
U 1 1 5D1EA6E4
P 2950 5000
F 0 "U3" H 2950 5250 60  0000 C CNN
F 1 "IRM-03-5" H 2700 4750 60  0000 L CNN
F 2 "myPowerSupplies:MEANWELL_IRM-03-XX" H 2950 5000 60  0001 C CNN
F 3 "" H 2950 5000 60  0000 C CNN
	1    2950 5000
	1    0    0    1   
$EndComp
$Comp
L C C3
U 1 1 5D2313CD
P 6500 2150
F 0 "C3" H 6525 2250 50  0000 L CNN
F 1 "100nF" H 6525 2050 50  0000 L CNN
F 2 "Capacitors_ThroughHole:C_Rect_L7_W2_P5" H 6538 2000 50  0001 C CNN
F 3 "" H 6500 2150 50  0000 C CNN
	1    6500 2150
	1    0    0    -1  
$EndComp
$Comp
L GND #PWR012
U 1 1 5D231545
P 6500 2450
F 0 "#PWR012" H 6500 2200 50  0001 C CNN
F 1 "GND" H 6500 2300 50  0000 C CNN
F 2 "" H 6500 2450 50  0000 C CNN
F 3 "" H 6500 2450 50  0000 C CNN
	1    6500 2450
	1    0    0    -1  
$EndComp
$Comp
L CONN_01X02 P3
U 1 1 5D232C8E
P 1500 3500
F 0 "P3" H 1500 3650 50  0000 C CNN
F 1 "MANUAL2" V 1600 3500 50  0000 C CNN
F 2 "Connect:bornier2" H 1500 3500 50  0001 C CNN
F 3 "" H 1500 3500 50  0000 C CNN
	1    1500 3500
	-1   0    0    -1  
$EndComp
$Comp
L R R2
U 1 1 5D25DF9D
P 7750 5200
F 0 "R2" V 7830 5200 50  0000 C CNN
F 1 "1K" V 7750 5200 50  0000 C CNN
F 2 "myPassives:Resistor_250mW" V 7680 5200 50  0001 C CNN
F 3 "" H 7750 5200 50  0000 C CNN
	1    7750 5200
	0    1    1    0   
$EndComp
$Comp
L R R1
U 1 1 5D25DFA3
P 7750 4800
F 0 "R1" V 7830 4800 50  0000 C CNN
F 1 "1K" V 7750 4800 50  0000 C CNN
F 2 "myPassives:Resistor_250mW" V 7680 4800 50  0001 C CNN
F 3 "" H 7750 4800 50  0000 C CNN
	1    7750 4800
	0    1    1    0   
$EndComp
$Comp
L D D4
U 1 1 5D25DFA9
P 8500 4150
F 0 "D4" H 8500 4250 50  0000 C CNN
F 1 "1N4148" H 8500 4050 50  0000 C CNN
F 2 "Diodes_ThroughHole:Diode_DO-35_SOD27_Horizontal_RM10" H 8500 4150 50  0001 C CNN
F 3 "" H 8500 4150 50  0000 C CNN
	1    8500 4150
	0    1    1    0   
$EndComp
$Comp
L D D3
U 1 1 5D25DFAF
P 8100 4150
F 0 "D3" H 8100 4250 50  0000 C CNN
F 1 "1N4148" H 8100 4050 50  0000 C CNN
F 2 "Diodes_ThroughHole:Diode_DO-35_SOD27_Horizontal_RM10" H 8100 4150 50  0001 C CNN
F 3 "" H 8100 4150 50  0000 C CNN
	1    8100 4150
	0    1    1    0   
$EndComp
$Comp
L PN2222A Q4
U 1 1 5D25DFB5
P 8600 4800
F 0 "Q4" H 8800 4875 50  0000 L CNN
F 1 "2N3904" H 8800 4800 50  0000 L CNN
F 2 "TO_SOT_Packages_THT:TO-92_Inline_Wide" H 8800 4725 50  0001 L CIN
F 3 "" H 8600 4800 50  0000 L CNN
	1    8600 4800
	1    0    0    -1  
$EndComp
$Comp
L PN2222A Q3
U 1 1 5D25DFBB
P 8200 5200
F 0 "Q3" H 8400 5275 50  0000 L CNN
F 1 "2N3904" H 8400 5200 50  0000 L CNN
F 2 "TO_SOT_Packages_THT:TO-92_Inline_Wide" H 8400 5125 50  0001 L CIN
F 3 "" H 8200 5200 50  0000 L CNN
	1    8200 5200
	1    0    0    -1  
$EndComp
$Comp
L GND #PWR013
U 1 1 5D25DFC1
P 8300 5600
F 0 "#PWR013" H 8300 5350 50  0001 C CNN
F 1 "GND" H 8300 5450 50  0000 C CNN
F 2 "" H 8300 5600 50  0000 C CNN
F 3 "" H 8300 5600 50  0000 C CNN
	1    8300 5600
	1    0    0    -1  
$EndComp
$Comp
L +5V #PWR014
U 1 1 5D25DFCD
P 8100 3800
F 0 "#PWR014" H 8100 3650 50  0001 C CNN
F 1 "+5V" H 8100 3940 50  0000 C CNN
F 2 "" H 8100 3800 50  0000 C CNN
F 3 "" H 8100 3800 50  0000 C CNN
	1    8100 3800
	1    0    0    -1  
$EndComp
$Comp
L CONN_01X02 P4
U 1 1 5D25E9C3
P 1500 6150
F 0 "P4" H 1500 6300 50  0000 C CNN
F 1 "AC-OUT2" V 1600 6150 50  0000 C CNN
F 2 "Connect:bornier2" H 1500 6150 50  0001 C CNN
F 3 "" H 1500 6150 50  0000 C CNN
	1    1500 6150
	-1   0    0    1   
$EndComp
$Comp
L CONN_01X02 P5
U 1 1 5D25ED38
P 1500 3900
F 0 "P5" H 1500 4050 50  0000 C CNN
F 1 "MANUAL1" V 1600 3900 50  0000 C CNN
F 2 "Connect:bornier2" H 1500 3900 50  0001 C CNN
F 3 "" H 1500 3900 50  0000 C CNN
	1    1500 3900
	-1   0    0    -1  
$EndComp
Text GLabel 1900 4800 1    60   Input ~ 0
LINE
$Comp
L +3V3 #PWR015
U 1 1 5D30EBFF
P 2750 2550
F 0 "#PWR015" H 2750 2400 50  0001 C CNN
F 1 "+3V3" H 2750 2690 50  0000 C CNN
F 2 "" H 2750 2550 50  0000 C CNN
F 3 "" H 2750 2550 50  0000 C CNN
	1    2750 2550
	1    0    0    -1  
$EndComp
$Comp
L OMRON-G5RL-K1A-E K2
U 1 1 5D31AF44
P 9700 1350
F 0 "K2" H 9650 1750 50  0000 C CNN
F 1 "OMRON-G5RL-K1A-E" H 9695 550 50  0000 C CNN
F 2 "myRelays:Relay_SPST_Omron-G5RL-K1A-E" H 9700 1350 50  0001 C CNN
F 3 "" H 9700 1350 50  0000 C CNN
	1    9700 1350
	1    0    0    -1  
$EndComp
$Comp
L OMRON-G5RL-K1A-E K1
U 1 1 5D31AFBE
P 9700 3550
F 0 "K1" H 9650 3950 50  0000 C CNN
F 1 "OMRON-G5RL-K1A-E" H 9695 2750 50  0000 C CNN
F 2 "myRelays:Relay_SPST_Omron-G5RL-K1A-E" H 9700 3550 50  0001 C CNN
F 3 "" H 9700 3550 50  0000 C CNN
	1    9700 3550
	1    0    0    -1  
$EndComp
Wire Wire Line
	5300 5200 7600 5200
Wire Wire Line
	5150 2450 5250 2450
Wire Wire Line
	5300 2300 5150 2300
Wire Wire Line
	5150 2150 5350 2150
Wire Wire Line
	5400 2000 5150 2000
Connection ~ 8100 3900
Wire Wire Line
	5250 4800 7600 4800
Connection ~ 8500 3900
Wire Wire Line
	8100 3900 9300 3900
Wire Wire Line
	8300 3800 9300 3800
Connection ~ 8300 5500
Wire Wire Line
	8300 5500 8700 5500
Wire Wire Line
	7900 5200 8000 5200
Wire Wire Line
	8300 5400 8300 5600
Wire Wire Line
	8300 3800 8300 5000
Wire Wire Line
	7900 4800 8400 4800
Wire Wire Line
	8700 5500 8700 5000
Wire Wire Line
	9300 4200 8700 4200
Wire Wire Line
	8700 4200 8700 4600
Wire Wire Line
	8500 4300 8500 4500
Wire Wire Line
	8500 4500 8700 4500
Connection ~ 8700 4500
Wire Wire Line
	8100 3800 8100 4000
Wire Wire Line
	8500 3900 8500 4000
Wire Wire Line
	8100 4300 8100 4500
Wire Wire Line
	8100 4500 8300 4500
Connection ~ 8300 4500
Wire Wire Line
	6500 2450 6500 2300
Connection ~ 6000 1200
Wire Wire Line
	6500 1200 6000 1200
Wire Wire Line
	6500 2000 6500 1200
Wire Wire Line
	3750 4900 3750 5100
Wire Wire Line
	3700 5100 3700 4850
Wire Wire Line
	3600 5100 3700 5100
Wire Wire Line
	3600 4900 3750 4900
Wire Wire Line
	6000 2350 6000 2450
Wire Wire Line
	6000 950  6000 1250
Wire Wire Line
	5450 1900 5550 1900
Wire Wire Line
	1700 5700 2000 5700
Wire Wire Line
	1900 4800 1900 5900
Connection ~ 1900 5050
Wire Wire Line
	1700 5050 2300 5050
Wire Wire Line
	1800 950  1800 3450
Wire Wire Line
	1800 3450 1700 3450
Wire Wire Line
	1700 3550 1800 3550
Wire Wire Line
	1800 3550 1800 4100
Wire Wire Line
	10250 5800 1700 5800
Wire Wire Line
	1900 5900 9100 5900
Wire Wire Line
	7200 2950 5350 2950
Wire Wire Line
	9100 1400 9300 1400
Connection ~ 10250 1500
Wire Wire Line
	10250 1200 10100 1200
Wire Wire Line
	10250 1500 10100 1500
Wire Wire Line
	9100 1100 9300 1100
Connection ~ 7000 3000
Connection ~ 8100 1700
Wire Wire Line
	7200 2600 7600 2600
Connection ~ 8500 1700
Wire Wire Line
	8100 1700 9300 1700
Wire Wire Line
	8300 1600 9300 1600
Connection ~ 8300 3300
Wire Wire Line
	8300 3300 8700 3300
Wire Wire Line
	5400 3000 7600 3000
Wire Wire Line
	7900 3000 8000 3000
Wire Wire Line
	8300 3200 8300 3400
Wire Wire Line
	8300 1600 8300 2800
Wire Wire Line
	7900 2600 8400 2600
Wire Wire Line
	8700 3300 8700 2800
Wire Wire Line
	9300 2000 8700 2000
Wire Wire Line
	8700 2000 8700 2400
Wire Wire Line
	8500 2100 8500 2300
Wire Wire Line
	8500 2300 8700 2300
Connection ~ 8700 2300
Wire Wire Line
	8100 1600 8100 1800
Wire Wire Line
	8500 1700 8500 1800
Wire Wire Line
	8100 2100 8100 2300
Wire Wire Line
	8100 2300 8300 2300
Connection ~ 8300 2300
Connection ~ 7200 2600
Wire Wire Line
	4050 4350 4600 4350
Wire Wire Line
	3550 3850 3550 3750
Wire Wire Line
	2550 2750 2550 2650
Wire Wire Line
	2550 2650 2750 2650
Connection ~ 2750 2650
Wire Wire Line
	2850 2000 3100 2000
Wire Wire Line
	2850 1000 2850 2000
Wire Wire Line
	6600 1000 2850 1000
Wire Wire Line
	6600 1800 6600 1000
Wire Wire Line
	2900 1700 3100 1700
Wire Wire Line
	2900 1050 2900 1700
Wire Wire Line
	5400 1050 2900 1050
Wire Wire Line
	5400 1800 5400 1050
Wire Wire Line
	2950 1850 3100 1850
Wire Wire Line
	2950 1100 2950 1850
Wire Wire Line
	6550 1100 2950 1100
Wire Wire Line
	6450 1700 6650 1700
Wire Wire Line
	6650 1700 6650 1150
Wire Wire Line
	6650 1150 5300 1150
Wire Wire Line
	5300 1150 5300 1850
Wire Wire Line
	5300 1850 5150 1850
Wire Wire Line
	5150 1700 5550 1700
Wire Wire Line
	6600 1800 6450 1800
Wire Wire Line
	5550 1800 5400 1800
Wire Wire Line
	6450 1900 6550 1900
Wire Wire Line
	6550 1900 6550 1100
Wire Wire Line
	5450 1900 5450 2600
Wire Wire Line
	5450 2600 5150 2600
Wire Wire Line
	2750 2750 3100 2750
Wire Wire Line
	2750 3050 3100 3050
Wire Wire Line
	2750 3050 2750 3200
Wire Wire Line
	2750 2550 2750 2750
Wire Wire Line
	1700 4950 2300 4950
Wire Wire Line
	2750 3150 2550 3150
Wire Wire Line
	2550 3150 2550 3050
Connection ~ 2750 3150
Wire Wire Line
	3550 3850 3650 3850
Wire Wire Line
	4050 4350 4050 4150
Wire Wire Line
	4600 3750 4600 3950
Connection ~ 4600 3850
Wire Wire Line
	4600 4250 4600 4450
Connection ~ 4600 4350
Wire Wire Line
	4600 3850 4450 3850
Wire Wire Line
	9100 3300 9300 3300
Wire Wire Line
	9100 3600 9300 3600
Wire Wire Line
	2000 6100 1700 6100
Connection ~ 2000 5700
Wire Wire Line
	10300 6200 1700 6200
Connection ~ 9100 3600
Wire Wire Line
	1800 3950 1700 3950
Connection ~ 1800 3950
Wire Wire Line
	1700 3850 1850 3850
Wire Wire Line
	1850 3850 1850 1550
Wire Wire Line
	9100 5900 9100 1100
Connection ~ 9100 1400
Connection ~ 9100 3300
Wire Wire Line
	10250 1200 10250 5800
Wire Wire Line
	10100 3400 10300 3400
Wire Wire Line
	10300 3400 10300 6200
Wire Wire Line
	10300 3700 10100 3700
Connection ~ 10300 3700
Wire Wire Line
	5400 3000 5400 2000
Wire Wire Line
	5350 2950 5350 2150
Wire Wire Line
	5300 5200 5300 2300
Wire Wire Line
	5250 2450 5250 4800
Wire Wire Line
	2000 4950 2000 6100
Connection ~ 2000 4950
Wire Wire Line
	1850 1550 3100 1550
Wire Wire Line
	1800 950  5250 950 
Wire Wire Line
	5250 950  5250 1550
Wire Wire Line
	5250 1550 5150 1550
Wire Wire Line
	7000 2400 7000 3000
Wire Wire Line
	7200 2400 7200 2950
Text GLabel 7200 2400 1    60   Input ~ 0
RESET2
Text GLabel 7000 2400 1    60   Input ~ 0
SET2
Text GLabel 7000 4600 1    60   Input ~ 0
SET1
Text GLabel 7200 4600 1    60   Input ~ 0
RESET1
Wire Wire Line
	7200 4600 7200 4800
Connection ~ 7200 4800
Wire Wire Line
	7000 4600 7000 5200
Connection ~ 7000 5200
$EndSCHEMATC
